{
    "logger": {
        "level": "debug",
        "file": "cron.log",
        "worker": false,
        "dir": "/home/alex/NetBeansProjects/hosting/new/server/logs"
    },
    "avcheck":{
        "key":"029edb88616658c367ff3dad7a5f40d3c5ebdbbf",
        "timeout":3,
        "thread":2
    },
    "layer":{
        "count":20,
        "ttl":86400
    },
    "clear":{
        "traffic":{
            "interval":60
        }
    },
    "mongoose": {
        "static": {
            "connect": "mongodb://localhost/static",
            "options": {
                "db": {
                    "native_parser": true
                },
                "server": {
                    "poolSize": 5
                }
            }
        },
        "dynamic": {
            "connect": "mongodb://localhost/dynamic",
            "options": {
                "db": {
                    "native_parser": true
                },
                "server": {
                    "poolSize": 100
                }

            }
        },
         "isp": {
            "connect": "mongodb://localhost/isp",
            "options": {
                "db": {
                    "native_parser": true
                },
                "server": {
                    "poolSize": 20
                },
                "user": "",
                "pass": ""
            }
        }
    },
    "redis": {
        "default": {
            "host": "127.0.0.1",
            "port": 6379,
            "maxConnections": 10,
            "options": {
                "parser": "hiredis",
                "detect_buffers": true
            }
        }
    },
    "maria-pool": {
        "default": {
            "pool": 100,
            "options": {
                "host": "127.0.0.1",
                "user": "root",
                "password": "123123",
                "db": "admin",
                "log": false
            }

        }
    }
}
