{
  "express": {
    "port": 8081,
    "ip": "0.0.0.0"
  },
  "static": "sql+handlersocket",
  "token": {
    "algorithm": "aes-256-ctr",
    "password": "d6F3Efeq"
  },
  "mongoose": {
    "static": {
      "connect": "mongodb://localhost/static",
      "options": {
        "db": {
          "native_parser": true
        },
        "server": {
          "poolSize": 100
        },
        "user": "",
        "pass": ""
      }
    },
    "dynamic": {
      "connect": "mongodb://localhost/dynamic",
      "options": {
        "db": {
          "native_parser": true
        },
        "server": {
          "poolSize": 100
        },
        "user": "",
        "pass": ""
      }
    },
    "isp": {
      "connect": "mongodb://localhost/isp",
      "options": {
        "db": {
          "native_parser": true
        },
        "server": {
          "poolSize": 100
        },
        "user": "",
        "pass": ""
      }
    }
  },
  "redis": {
    "default": {
      "host": "127.0.0.1",
      "port": 6379,
      "maxConnections": 10,
      "options": {
        "parser": "hiredis",
        "detect_buffers": true
      }
    }
  },
  "maria-pool": {
    "default": {
      "pool": 10,
      "options": {
        "host": "localhost",
        "user": "root",
        "password": "123123",
        "db": "admin",
        "log": true
      }
    }
  },
  "mariadb": {
    "default": {
      "driverType": "nodeMaria.DRIVER_TYPE_HANDLER_SOCKET",
      "host": "localhost",
      "port": 9998
    }
  },
  "use": "nginx",
  "worker": 1,
  "pmx": false,
  "isp": {
    "full": true,
    "cache": {
      "mode": true,
      "name": "default",
      "json":true,
      "prefix": "isp:"
    }
  },
  "company": {
    "reload": 240,
    "cache": {
      "mode": true,
      "ttl": 300,
      "preriod": 30
    }
  },
  "domain": {
    "reload": 240,
    "cache": {
      "mode": true,
      "ttl": 300,
      "preriod": 30
    }
  },
  "exploit": {
    "ttl": 300,
    "preriod": 360
  },
  "ban": {
    "ip": {
      "ttl": 300,
      "preriod": 360
    }
  },
  "geoip": {
    "path": "/home/alex/NetBeansProjects/hosting/new/server/data/GeoLite2-Country.mmdb",
    "cache": {
      "mode": true,
      "name": "default",
      "prefix": "geoip:",
      "json":true
    },
    "clear": 10000
  },
  "upload": "/home/alex/NetBeansProjects/hosting/new/server/uploads",
  "logger": {
    "level": "debug",
    "file": "tds.log",
    "dir": "/home/alex/NetBeansProjects/hosting/new/server/logs"
  },
  "shortUrl": {
    "server": "https://media.bambinidream.com/api2/",
    "key": "f329s50x8ov1z9ei6zsp3xizy34lnb2l",
    "login": "suadmin",
    "password": "FSVs?{XK%e#2",
    "method": "api"
  }
}